<?xml version="1.0" standalone="no"?>
<!DOCTYPE svg PUBLIC "-//W3C//DTD SVG 1.1//EN" "http://www.w3.org/Graphics/SVG/1.1/DTD/svg11.dtd" >
<svg xmlns="http://www.w3.org/2000/svg">
<metadata>Generated by IcoMoon</metadata>
<defs>
<font id="icomoon" horiz-adv-x="1024">
<font-face units-per-em="1024" ascent="960" descent="-64" />
<missing-glyph horiz-adv-x="1024" />
<glyph unicode="&#x20;" horiz-adv-x="512" d="" />
<glyph unicode="&#xe900;" glyph-name="blog" d="M512 960c-282.746 0-512.046-229.254-512.046-512s229.3-512 512.046-512 512 229.254 512 512-229.254 512-512 512zM831.106 334.842c0-113.795-92.608-206.017-207.315-206.017h-223.399c-114.57 0-207.611 92.107-207.611 206.017v226.179c0 113.909 92.973 206.153 207.611 206.153h104.637c114.684 0 206.449-85.637 206.449-199.501 1.481-21.301 20.754-39.868 42.625-39.868h35.79c22.896 0 41.281-24.058 41.281-46.771v-146.191zM631.673 368.195h-239.346c-22.019 0-39.868-17.85-39.868-39.868s17.85-39.868 39.868-39.868v0h239.346c22.019 0 39.868 17.85 39.868 39.868s-17.85 39.868-39.868 39.868v0zM392.327 527.805h119.673c22.019 0 39.868 17.85 39.868 39.868s-17.85 39.868-39.868 39.868v0h-119.673c-22.019 0-39.868-17.85-39.868-39.868s17.85-39.868 39.868-39.868v0z" />
<glyph unicode="&#xe901;" glyph-name="carrinho" horiz-adv-x="1155" d="M40.186 960c-1.34 0.162-2.892 0.255-4.465 0.255-21.65 0-39.201-17.551-39.201-39.201 0-20.077 15.093-36.628 34.551-38.928l0.185-0.018 87.318-18.853c46.14-220.775 96.248-440.062 144.868-659.845 4-17.699 19.575-30.723 38.198-30.76h691.601c1.33-0.158 2.87-0.248 4.431-0.248 21.92 0 39.69 17.77 39.69 39.69s-17.77 39.69-39.69 39.69c-1.561 0-3.101-0.090-4.615-0.265l0.184 0.017h-659.845l-17.364 78.388h712.434c0.567-0.029 1.232-0.046 1.9-0.046 18.674 0 34.298 13.060 38.236 30.544l0.050 0.262 87.318 393.922c0.801 2.978 1.26 6.397 1.26 9.923 0 21.84-17.64 39.56-39.45 39.689h-905.934l-21.829 100.217c-3.33 15.023-14.829 26.688-29.497 30.209l-0.271 0.055-112.124 24.31h-7.938zM465.86 146.357c-57.445-0.839-103.69-47.603-103.69-105.168 0-58.088 47.090-105.178 105.178-105.178 58.085 0 105.172 47.084 105.178 105.167v0.001c-0.279 58.151-47.484 105.183-105.673 105.183-0.349 0-0.698-0.002-1.047-0.005h0.053zM833.488 146.357c-0.147 0.001-0.322 0.001-0.496 0.001-58.088 0-105.178-47.090-105.178-105.178s47.090-105.178 105.178-105.178c58.088 0 105.178 47.089 105.178 105.177v0c-0.277 57.803-46.92 104.619-104.629 105.178h-0.053z" />
<glyph unicode="&#xe902;" glyph-name="colchao-para-bercos" horiz-adv-x="1488" d="M151.199 10.155c10.766 4.669 18.16 15.205 18.16 27.469 0 0.016 0 0.033 0 0.049v-0.003 99.538h1235.115v-51.042c36.829-6.628 64.818-37.176 67.468-74.721l0.015-0.26c9.664 5.029 16.153 14.963 16.166 26.413v892.545c0 16.488-13.366 29.855-29.855 29.855h-23.87c-0.020 0-0.045 0-0.069 0-16.488 0-29.855-13.366-29.855-29.855 0 0 0 0 0 0v0-59.778h-1235.115v59.778c0 0 0 0 0 0 0 16.488-13.366 29.855-29.855 29.855-0.024 0-0.048 0-0.073 0h-23.866c-0.020 0-0.045 0-0.069 0-16.488 0-29.855-13.366-29.855-29.855 0 0 0 0 0 0v0-844.322c36.212-7.49 63.389-38.115 65.546-75.449l0.010-0.219zM1154.769 471.939v342.64h108.963v-342.64zM982.107 647.214v-175.276h-531.192v342.64h108.756v-102.084h31.85v102.084h108.894v-23.388h31.918v23.388h109.375v-60.122h31.85v60.122h249.706v-342.64h-109.238v175.276zM310.103 471.939v342.64h108.894v-342.64zM278.253 814.579v-342.64h-57.646c0 0 0 0 0 0-16.488 0-29.855-13.366-29.855-29.855 0-0.024 0-0.048 0-0.073v0.004-98.575c0-0.020 0-0.045 0-0.069 0-16.488 13.366-29.855 29.855-29.855 0 0 0 0 0 0h1132.55c16.526 0 29.923 13.397 29.923 29.923v0 98.575c0 16.526-13.397 29.923-29.923 29.923h-57.439v342.64h108.894v-517.985h-1235.252v517.985zM591.658 471.939h-31.987v240.763h31.85zM732.401 471.939h-31.85v319.252h31.85zM873.213 471.939h-31.506v282.518h31.85zM1013.682 647.214h-31.643v167.365h31.643zM69.753-64.138c38.523 0 69.753 31.229 69.753 69.753s-31.229 69.753-69.753 69.753c-38.523 0-69.753-31.229-69.753-69.753v0c0-38.523 31.229-69.753 69.753-69.753v0zM69.753 35.47c16.526 0 29.923-13.397 29.923-29.923s-13.397-29.923-29.923-29.923c-16.526 0-29.923 13.397-29.923 29.923 0 0.024 0 0.048 0 0.073v-0.004c0 0.020 0 0.045 0 0.069 0 16.526 13.397 29.923 29.923 29.923 0 0 0 0 0 0v0zM1390.51 75.436c-38.523 0-69.752-31.229-69.752-69.753s31.229-69.753 69.753-69.753c38.523 0 69.753 31.229 69.753 69.753 0 0.024 0 0.048 0 0.073v-0.004c0 38.485-31.198 69.684-69.684 69.684-0.024 0-0.048 0-0.073 0h0.004zM1390.51-24.171c-0.020 0-0.045 0-0.069 0-16.526 0-29.923 13.397-29.923 29.923s13.397 29.923 29.923 29.923c16.526 0 29.923-13.397 29.923-29.923v0c0 0 0 0 0 0 0-16.478-13.319-29.845-29.778-29.923h-0.007z" />
<glyph unicode="&#xe903;" glyph-name="colchao-queen-size" horiz-adv-x="1354" d="M518.437 173.275h317.147v-36.279h-317.147zM0 553.618v-617.618h76.946l14.921 98.597h1170.286l13.751-98.597h76.946v617.033zM702.171 751.104c161.499 55.003 272.677 53.541 434.469 0v-161.499h131.365v267.703c-409.6 134.875-772.681 139.264-1181.989 0v-267.41h130.194v160.622c161.499 55.003 272.677 53.541 434.469 0v-161.499h52.663v161.499zM889.71 433.079l-54.126-223.525h-317.147l-55.296 222.939 138.971-110.592 74.898 128.731 74.898-128.731z" />
<glyph unicode="&#xe904;" glyph-name="colcha-para-solteiro" horiz-adv-x="1247" d="M1247.079 504.378h-1247.079v-267.154h1247.079zM1247.079 166.38h-1247.079v-230.38h70.844l12.438 90.854h1081.595l12.438-90.854h70.844zM114.379 869.957v-332.050h197.121v169.81c226.594 77.334 397.216 74.63 624.351 0v-171.162h197.121v333.402c-356.926 117.894-662.477 122.22-1018.592 0z" />
<glyph unicode="&#xe905;" glyph-name="colchoes-para-casal" horiz-adv-x="1108" d="M0 171.044h1108.301v-155.267h-1108.301v155.267zM0-30.66h113.116v-33.34h-113.116v33.34zM995.185-30.66h113.116v-33.34h-113.116v33.34zM1108.301 339.408c0 52.608-42.647 95.256-95.256 95.256v0h-917.79c-52.608 0-95.256-42.647-95.256-95.256v0-119.070h1108.301zM354.59 607.792c-0.213 0.001-0.465 0.002-0.717 0.002-63.262 0-114.545-51.284-114.545-114.545 0-0.252 0.001-0.504 0.002-0.755v0.039-11.193h232.9v11.193c-0.67 63.802-52.547 115.266-116.444 115.266-0.421 0-0.841-0.002-1.261-0.007l0.064 0.001zM753.712 607.792c-0.213 0.001-0.465 0.002-0.717 0.002-63.262 0-114.545-51.284-114.545-114.545 0-0.252 0.001-0.504 0.002-0.755v0.039-11.193h232.662v11.193c-1.334 63.864-53.36 115.139-117.391 115.26h-0.012zM192.893 492.532c3.455 87.888 75.539 157.828 163.959 157.828s160.504-69.94 163.949-157.515l0.010-0.313v-11.193h71.442v11.193c0 90.618 73.46 164.078 164.078 164.078s164.078-73.46 164.078-164.078v0-11.193h97.399v230.519c-0.918 26.343-22.371 47.38-48.795 47.628h-60.273c0 110.735-159.553 199.323-354.59 199.323s-354.59-87.397-354.59-198.132h-55.487c-25.938-0.89-46.738-21.69-47.626-47.545l-0.002-0.083v-230.519h97.637z" />
<glyph unicode="&#xe906;" glyph-name="compra-segura" d="M512.020 408.788c-0.025 0-0.056 0-0.086 0-29.385 0-53.206-23.821-53.206-53.206 0-19.633 10.634-36.782 26.456-46.002l0.253-0.136v-59.189h53.125v59.189c16.075 9.357 26.709 26.506 26.709 46.138 0 29.385-23.821 53.206-53.206 53.206-0.016 0-0.032 0-0.048 0h0.003zM512.020 666.826c-44.802-0.046-81.108-36.352-81.154-81.149v-86.298h162.308v86.414c-0.137 44.741-36.404 80.965-81.147 81.033h-0.007zM512.020 959.96c-0.012 0-0.026 0-0.040 0-282.781 0-512.020-229.239-512.020-512.020s229.239-512.020 512.020-512.020c282.781 0 512.020 229.239 512.020 512.020 0 0.014 0 0.028 0 0.042v-0.002c-0.023 282.75-229.23 511.957-511.978 511.98h-0.002zM669.308 184.722h-314.617c-33.266 0-60.233 26.967-60.233 60.233v0 194.271c0.001 28.886 20.334 53.022 47.469 58.876l0.396 0.072v87.619c-0.013 0.776-0.020 1.692-0.020 2.61 0 93.721 75.976 169.696 169.696 169.696s169.696-75.976 169.696-169.696c0-0.918-0.007-1.834-0.022-2.748l0.002 0.138v-87.619c27.47-5.953 47.753-30.037 47.785-58.864v-194.315c0 0 0 0 0 0 0-33.237-26.921-60.187-60.148-60.233h-0.004z" />
<glyph unicode="&#xe907;" glyph-name="lupa-busca" horiz-adv-x="1073" d="M0 481.383v79.684c1.535 7.291 3.453 14.581 4.605 22 12.391 87.895 50.835 165.135 107.151 225.481l-0.223-0.242c85.3 93.437 207.624 151.83 343.586 151.83 92.178 0 178.088-26.84 250.34-73.131l-1.857 1.113c123.779-75.892 205.105-210.446 205.105-363.993 0-72.264-18.013-140.321-49.793-199.926l1.116 2.292c-12.79-24.558-28.778-47.325-45.662-74.44 6.645-4.522 12.4-8.977 17.873-13.747l-0.222 0.189c71.626-68.684 143.38-137.113 214.367-206.181 9.42-10.818 18.086-22.824 25.608-35.584l0.613-1.124v-20.848c-24.813-45.534-61.522-51.162-99.509-14.581q-108.207 103.602-216.030 207.46l-16.116 14.965-12.79-8.825c-74.597-54.66-168.195-87.464-269.454-87.464-23.754 0-47.087 1.805-69.868 5.286l2.55-0.321c-185.849 23.435-334.734 158.185-378.84 334.462l-0.652 3.077c-5.116 17.267-8.186 35.046-11.895 52.569zM454.187 187.204c0.304-0.001 0.663-0.001 1.023-0.001 58.394 0 113.544 13.891 162.325 38.55l-2.061-0.944c172.67 84.417 240.588 296.226 145.555 459.815-63.375 104.937-176.812 174.019-306.384 174.019-52.694 0-102.72-11.425-147.735-31.934l2.234 0.911c-135.45-61.906-216.542-195.565-202.088-333.318 18.29-175.612 166.147-306.202 347.132-306.586z" />
<glyph unicode="&#xe908;" glyph-name="premios" d="M971.008 521.856l27.648 85.248-71.552 53.12v89.6l-85.248 27.776-30.080 82.816h-89.6l-53.12 71.552-84.864-27.264-71.552 55.296-73.856-52.992-85.888 27.648-53.12-71.552h-89.6l-27.776-85.248-85.248-27.776v-89.6l-71.808-53.376 27.648-85.248-52.992-73.856 52.992-73.984-27.648-85.12 71.552-53.12v-89.6l85.248-28.16 27.776-85.376h89.6l53.12-71.552 85.248 27.776 73.856-53.12 73.856 53.12 85.248-27.776 53.12 71.552h89.6l28.288 85.376 85.248 27.648v89.6l71.552 53.12-27.648 85.632 52.992 73.728zM512 81.28c-0.038 0-0.083 0-0.128 0-202.534 0-366.72 164.186-366.72 366.72s164.186 366.72 366.72 366.72c202.534 0 366.72-164.186 366.72-366.72v0c0-0.152 0-0.332 0-0.512 0-202.251-163.957-366.208-366.208-366.208-0.135 0-0.271 0-0.406 0h0.021zM645.76 473.344v-11.52h6.912c0.232-0.006 0.504-0.010 0.778-0.010 17.39 0 31.488 14.098 31.488 31.488 0 0.273-0.003 0.546-0.010 0.818l0.001-0.040v39.296h-39.168zM512 770.816c-178.357 0-322.944-144.587-322.944-322.944s144.587-322.944 322.944-322.944c178.357 0 322.944 144.587 322.944 322.944 0 0.045 0 0.090 0 0.135v-0.007c-0.653 178.068-144.866 322.236-322.889 322.816h-0.055zM726.528 496.384c0.004-0.269 0.006-0.586 0.006-0.903 0-40.224-32.608-72.832-72.832-72.832-0.362 0-0.723 0.003-1.084 0.008l0.055-0.001h-16.128c-18.265-42.534-56.618-73.334-102.786-80.668l-0.766-0.1v-41.472c37.055-4.508 68.495-25.263 87.391-54.813l0.289-0.483h-219.392c20.679 28.469 51.378 48.574 86.826 55.164l0.854 0.132v41.472c-46.752 8.037-84.932 38.597-103.457 79.892l-0.351 0.876h-16.128c-0.306-0.005-0.668-0.007-1.030-0.007-40.224 0-72.832 32.608-72.832 72.832 0 0.318 0.002 0.635 0.006 0.951v-0.048 78.464h80.768v55.168h267.52v-55.424h80.768v-78.464zM378.24 535.68h-39.168v-39.296c-0.017-0.385-0.026-0.836-0.026-1.29 0-17.39 14.098-31.488 31.488-31.488 0.279 0 0.558 0.004 0.835 0.011l-0.041-0.001h6.912v72.064z" />
<glyph unicode="&#xe909;" glyph-name="sustentabilidade" d="M1019.742 514.279l-3.931 34.614h-31.556c-193.16 0-330.851-46.406-419.405-134.961-3.276-3.276-6.115-7.643-9.172-10.919 28.259-36.122 52.41-77.465 70.592-121.883l1.256-3.469c54.596 85.279 147.736 164.552 294.818 208.447-126.289-83.948-218.154-211.064-254.966-359.885l-0.87-4.16c5.167-41.52 8.115-89.576 8.115-138.32 0-3.195-0.013-6.388-0.038-9.577l0.003 0.488c0-0.040 0-0.088 0-0.135 0-4.577-0.357-9.070-1.046-13.454l0.063 0.486c205.345 71.351 350.102 263.204 350.102 488.867 0 22.511-1.44 44.686-4.234 66.437l0.27-2.575zM604.049-25.346c0 172.305-23.804 315.673-147.409 439.278-88.554 88.554-223.952 134.961-417.112 134.961h-31.556l-3.931-34.614c-2.673-19.677-4.199-42.419-4.199-65.517 0-282.913 228.926-512.358 511.642-513.199h0.081c0.793-0.005 1.731-0.007 2.67-0.007 21.187 0 42.068 1.312 62.566 3.859l-2.451-0.248 29.7 3.494v31.556zM224.498 159.625c-71.235 70.364-116.165 167.218-118.791 274.563l-0.009 0.491c127.318-8.299 220.676-41.493 277.893-98.273 76.434-75.888 109.192-158 116.289-294.818-107.806 2.607-204.709 47.221-275.375 118.030l-0.006 0.006zM988.622 673.808l-79.71 185.626c-9.281 21.838-29.809 22.93-45.315 2.621l-21.838-28.717c-89.646 75.67-204.953 126.662-330.96 126.662-221.151-0.588-409.557-140.137-482.554-335.91l-1.166-3.567h12.448c37.999 0 74.032-6.661 108.209-9.827 64.007 138.57 201.788 232.996 361.625 232.996 100.89 0 192.993-37.622 263.045-99.602l-0.421 0.366v-1.201l-22.712-29.809c-15.614-20.2-9.172-39.855 14.195-43.677l199.821-29.591c23.149-3.057 34.614 11.902 25.332 33.631z" />
<glyph unicode="&#xe90a;" glyph-name="voltar-busca-vazia" horiz-adv-x="1636" d="M613.732-64v307.5c31.222 6.913 62.099 14.229 93.264 20.508 82.144 17.892 176.503 28.14 273.256 28.14 11.13 0 22.228-0.136 33.294-0.405l-1.643 0.032c176.965-5.3 339.298-57.203 487.748-152.713 46.085-29.609 89.692-62.905 136.353-95.798-11.521 26.095-22.063 51.384-33.815 76.155-51.5 108.76-116.364 208.187-203.867 291.888-106.283 101.674-233.188 164.58-374.898 199.719-122.815 30.473-248.050 39.69-374.034 41.591-11.176 0-22.293 0-35.658 0v307.384h-3.111c-3.314-4.218-6.728-7.978-10.388-11.484l-0.039-0.037q-262.855-219.19-525.825-438.265c-24.482-20.335-48.85-40.785-74.254-62.041 5.761-5.012 9.62-9.044 13.998-12.673q292.407-243.672 584.871-487.345c4.048-3.859 7.814-7.899 11.333-12.152l0.188-0.234z" />
</font></defs></svg>